{
  "/springjwt/*": {
    "target": "https://machiavelli-talkative-panda.cfapps.io",
    "secure": false
  },
  "/oauth/*": {
    "target": "https://machiavelli-talkative-panda.cfapps.io",
    "secure": false
  }
}
